{
    "body": [
        {
            "text": "\nThank you for playing Spacebase DF-9 Unofficial v1.08.1!",
            "y": 70
        },
        {
            "text": "This patch contains some great updates, including new objects, bug fixes, more death and wacky mayhem!\nNew features include: HappyBots, Brainworms, New Events, New objects, Easier ways to mod the game and bug fixes everywhere!",
            "y": -50
        },
        {
            "text":"",
            "y": -240
        }
    ],
    "footer": {
        "text": ">> Spacebase Hub: For all your Spacebase DF-9 needs!",
        "url": "http://www.spacebasehub.net",
        "y": -370,
        "w": 360
    }
}
